
  Дисковая операционная система для БК0010, БК0011, БК0011М


     ##┐      ###┐   ###┐ ########┐     ######┐     ######┐
    ####┐     ###│   ###│ ###┌──####┐ ####┌─####┐ ####┌─####┐
   ######┐    ####┐  ###│ ###│   ###│ ###┌┘  ###│ ###┌┘  ###│
  ###┌─###┐   #####┐ ###│ ###│   ###│ ###│   ###│ ####┐  └──┘
 ###┌┘  ###┐  ###│##┐###│ ###│   ###│ ###│   ###│ └─######┐
 ###│   ###│  ###│ #####│ ###│   ###│ ###│   ###│   └───####┐
 ##########│  ###│  ####│ ###│   ###│ ###│   ###│ ###┐   ###│
 ###┌───###│  ###│   ###│ ###│  ####│ ####┐ ####│ ####┐ ####│
 ###│   ###│  ###│   ###│ ########┌─┘ └─######┌─┘ └─######┌─┘
 └──┘   └──┘  └──┘   └──┘ └───────┘     └─────┘     └─────┘

                         Версия 3.30


                 Инструкция для профессионала.



==================== (C) 1997 А.М.Надежин =====================

     Эта инструкция  предназначена  для  тех,  кто уверен,  что
читать описания - бесполезное занятие. Здесь собраны только ко-
манды с краткими комментариями, понятными лишь профессионалу.


                           Заставка
                           ~~~~~~~~

↑       - увеличение даты на 1 день;
↓       - уменьшение даты на 1 день;
←┘      - запуск оболочки;
ПРОБЕЛ  - сброс даты и запуск оболочки;
КТ      - выход в монитор;
0-9     - запуск ключа;
A-Z     - переход на 137000, если там NOP.

                          Устройства
                          ~~~~~~~~~~
@ - магнитофон, A,B - дисководы, C-■ - разделы винчестера,
E - виртуальный диск (может быть отключен).

                     Команды перехватчика
                     ~~~~~~~~~~~~~~~~~~~~

n:      - назначение текущего устройства;
n:name  - обращение к указанному устройству;
:       - каталог (можно указывать устройство). При выводе ка-
          талога: ПРОБЕЛ - пауза,  буква -  фильтр  по  имени,
          СУ+буква - фильтр по расширению;
-name   - удаление (СТОП - отказ);
D?      - включение режима "дубль"; ┐  При указании перед име-
P?      - -- // -- "Перезапись";    ┤  нем  включаются  только
??      - -- // -- "Запрос";        ┘  для текущей операции.
{пусто} - запуск файлера;
.       - -- // -- (можно указ. режим или "-").
.ext    - -- // -- с фильтром по расширению.

     Для большинства команд расширение значения не имеет.
     Приоритет при совместной подаче команд:

 режим записи → устройство → удаление → вывод каталога → файлер


                            Файлер
                            ~~~~~~

     По умолчанию каталог выводится в 3 столбца по  10  имен  в
каждом (можно изменять программно),  в режиме "РП" - 5 столбцов
по 4 имени.

↑↓←→    - перемещение курсора;
ВВОД    - выбор файла, на пустом имени - сброс фильтров;
ШАГ     - переход на другое устройство (имя вводится после ШАГ)
СБР     - перечитывание каталога;
буквы -   фильтр по первому символу имени;
точка   - фильтр по перв. сим. расширения (вводится после ".");
ПРОБЕЛ  - сброс фильтра по имени ("." ПРОБЕЛ - по расширению);
КТ,СТОП - аварийный выход.


                     Оболочка Disk MASTER
                     ~~~~~~~~~~~~~~~~~~~~
     Меню находится  в оверлее,  поэтому ANDOS.SYS должен быть
всегда доступен. На БК0011М можно запустить OVL.M для загрузки
оверлея на VDisk. Когда в командной строке набирается имя фай-
ла он ищется сначала на текущем,  а потом на системном  диске.
M-файлы можно запускать, не набирая расширение ".M".

↑ ↓     - вверх/вниз на строку;
← →     - в начало/в конец экрана (вверх/вниз на страницу);
АР2+← → - в начало/в конец каталога;
ТАБ     - переход на другую панель;
СБР     - перечитывание каталога;
ШАГ     - чтение каталога указанного устройства;
K══     - чтение каталога на левую панель;
╞══>    - чтение каталога на правую панель;
←┘      - запуск файла (командной строки)/вход в подкаталог;
АР2+←┘  - то же с подавлением сообщений ANDOS;
АР2+1-0 - основные функции;
ВС      - выделение/снятие выделения;
АР2+ВС  - то же для группы файлов начиная от текущего;
ПОВТ    - ввод фильтра (ред: ← → <══, включается прозрачность);
ИНД СУ  - вкл./выкл. индикации одних выделенных файлов;
БЛОК РЕД- вкл./выкл. прозрачности (все файлы всех подкатал.);
═╪═>    - переключение индикации: размер/дата;
АР2+↑ ↓ - перемещение имени вверх/вниз (ручная сортировка);
КТ      - вызов доп. меню/отказ от текущей операции;
<══     - забой в командной строке;
СТОП    - сброс командной строки;
СУ+F    - активизация текущей подгрузки (M-файла);

                          User - меню

↑ ↓     - перемещение по меню;
←┘      - запуск пункта;
буква   - запуск пункта по первой букве его названия;
БЛОК РЕД- редактирование пункта;
ИНД СУ  - ввод нового пункта.

                  Редактирование USER - меню

← →     - перемещение курсора;
ИНД СУ  - ввод спецсимвола (после ИНД СУ вводится символ);
КТ      - выход (ВВОД - запись на диск, КТ - продолжение);

                             View

↑ ↓     - вверх/вниз на строку;
← →     - назад/вперед на страницу;
АР2+↑ ↓ - в начало/в конец текста;
АР2+← → - горизонтальный скроллинг влево/вправо;
ШАГ     - установка шага горизонтального скроллинга;
ТАБ     - вкл./выкл. режима текстового дампа;
КТ      - выход.
СБР     - уст. последней строки печати (посл. строка экрана);
F(ind)  - задание модели поиска и поиск;
J(ump)  - переход к любой части текста по линейному  индикатору
          (← → - установка индикатора, ←┘ - переход к тексту);
L(ines) - установка количества строк для печати (0-все строки);
B(lank) - установка отступа при печати;
I(niSt) - уст. управляющей последовательности принтера (псевдо-
          графика перекодируется в коды 0-37);
P(rint) - печать (тип принтера устанавливается в ANSETUP).
E(dit)  - редактирование текста до 32000:
  ↑↓→←    - перемещения курсора (с АР2 - листания страниц
            и переход на начало/конец строки)
  ВВОД    - ввод/разбиение строки
  ╞═> K══ - раздвижка/сдвижка
  ╪═>     - сброс части строки
  АР2+К══ - строку в буфер
  АР2+╞═> - строку из буфера
  ШАГ     - переход к концу текста
  СБР     - переход к началу текста
  КТ      - выход с возможностью сохранения изменений

                          Move, Copy

     Move перемещает файлы (подкаталоги) в подкаталог на том же
диске или на другой диск (только на двух дисководах).

     В меню выбора устройств:

← → ←┘  - выбор устройсва и запуск процесса;
A-Z     - копирование (перемещение) на указанное устройство;
ТАБ     - ввод пути (вводится только последний подкаталог);

     При копировании (перемещении на другой диск) работает  са-
мовосстановление (при нажатии Reset после зависания копирование
продолжается). При копировании на одном дисководе работает  ав-
тосмена диска  (при  смене  диска  не нужно нажимать клавишу) с
полной защитой от установки не того диска.
     Если на  целевом диске обнаруживается файл с таким же име-
нем, как и копируемый,  выводится меню:  "Overwrite Double  All
Skip" (Перезапись/дубль/перезапись всех файлов/переход к следу-
ющему файлу).

                             MkDIR

     Имя подкаталога - 11 символов без расширения (может совпа-
дать с именем имеющегося на диске файла).
     Все выделенные файлы помещаются в создаваемый подкаталог.

                            Delete

     Удаляются как файлы, так и подкаталоги со всем содержимым.

                             Menu

← →     - выбор меню;
↑ ↓     - перемещение по пунктам;
←┘      - выбор пункта;
буква   - выбор пункта по первой букве его названия.

                        Меню "Command"

Compare - СУ+Q   - сравнение каталогов (сравниваются  каталоги
                   целиком, но  выделяются  только  файлы,  из
                   числа тех, которые есть на панели с  учетом
                   подкаталогов и т.д.);
Find      СУ+P   - поиск на винчестере по маске
Tree      СУ+T   - "дерево" подкаталогов
Edit      СУ+R   - редактирование текста (см.View)
Date      СУ+D * - установка даты
Address   СУ+A * - установка адреса файла
Printdir       * - печать каталога
Mdoseм    СУ+M   - эмулятор MicroDOS
caLc      СУ+K   - калькулятор

                          Меню "Disk"

Disk naмe СУ+^ * - имя диска
Makedev   СУ+]   - создание ссылки на устройство
Press dir - "сжатие" (перемещение в конец дырок) и запись
Naмe sort - сортировка по именам (от текущего файла)
Ext. sort - сортировка по расширениям
daTe sort - сортировка по дате
Backup    - сохранение каталога и FAT на 80(40) дорожке
Restore   - восстановление каталога и FAT
Init      - инициализация диска

                         Меню "Setup"

Color    - оцветнение
savEscr  - задержка хранителя экрана x100 сек. (0-выкл.)
vDisk     СУ+U   - переключ. магнитофон/VDisk
Viewers   СУ+B * - выбор 80-симв. View'ера
Printers - установка типа принтера
Save     - сохранение на диске параметров оболочки


"""""""""""""""""""""""""""""""""""""""""""""""""""""""""""""""



                                              Алексей М.Надежин
                                              4  мая  1997 года
                                              тел.(095)180-3002



 --------------------------------------------------------------
    Желаю Вам успешной и плодотворной работы с ANDOS V3.30
 --------------------------------------------------------------